MxNet Contributor Email Summary
…
actors_emails <- actors_emails %>% mutate(
  host = regmatches(email, regexpr("(?<=@)(.*)", email, perl=TRUE))
)

total_actors_emails <- nrow(actors_emails)

actors_emails_summary <- actors_emails %>% 
  group_by(host) %>% 
  summarise(emails=n(), emails_pct = round(n()/total_actors_emails, 3)) %>% 
  arrange(desc(emails_pct), host)

actors_emails_summary

## # A tibble: 162 x 3
##                        host emails emails_pct
##                       <chr>  <int>      <dbl>
##  1                gmail.com    443      0.465
##  2 users.noreply.github.com    101      0.106
##  3                   qq.com     78      0.082
##  4                  163.com     51      0.054
##  5              hotmail.com     34      0.036
##  6              outlook.com     14      0.015
##  7                  126.com     13      0.014
##  8               amazon.com      9      0.009
##  9              foxmail.com      7      0.007
## 10                 sina.com      6      0.006
## # ... with 152 more rows
…
ggsave("edu_domains_found.png")

## Saving 7 x 5 in image

emails_matched_edu_summary %>% filter(is_edu & !company_in_email) %>% select(host)

## # A tibble: 24 x 1
##                   host
##                 <fctr>
##  1 college.harvard.edu
##  2          cqu.edu.cn
##  3             uci.edu
##  4    life.hkbu.edu.hk
##  5       postech.ac.kr
##  6             aus.edu
##  7   cs.washington.edu
##  8        eng.ucsd.edu
##  9          ntu.edu.tw
## 10            umbc.edu
## # ... with 14 more rows
…
